waveform/fir.vcd
$date
   Sat May 31 11:32:34 2025
$end
$version
  2022.1
$end
$timescale
  1ps
$end
$scope module fir_tb $end
$var wire 1 ! awready $end
$var wire 1 " wready $end
$var reg 1 # awvalid $end
$var reg 12 $ awaddr [11:0] $end
$var reg 1 % wvalid $end
$var reg 32 & wdata [31:0] $end
$var wire 1 ' arready $end
$var reg 1 ( rready $end
$var reg 1 ) arvalid $end
$var reg 12 * araddr [11:0] $end
$var wire 1 + rvalid $end
$var wire 32 , rdata [31:0] $end
$var reg 1 - ss_tvalid $end
$var reg 32 . ss_tdata [31:0] $end
$var reg 1 / ss_tlast $end
$var wire 1 0 ss_tready $end
$var reg 1 1 sm_tready $end
$var wire 1 2 sm_tvalid $end
$var wire 32 3 sm_tdata [31:0] $end
$var wire 1 4 sm_tlast $end
$var reg 1 5 axis_clk $end
$var reg 1 6 axis_rst_n $end
$var wire 4 7 tap_WE [3:0] $end
$var wire 1 8 tap_EN $end
$var wire 32 9 tap_Di [31:0] $end
$var wire 12 : tap_A [11:0] $end
$var wire 32 ; tap_Do [31:0] $end
$var wire 4 < data_WE [3:0] $end
$var wire 1 = data_EN $end
$var wire 32 > data_Di [31:0] $end
$var wire 12 ? data_A [11:0] $end
$var wire 32 @ data_Do [31:0] $end
$var reg 32 A data_length [31:0] $end
$var integer 32 B Din [31:0] $end
$var integer 32 C golden [31:0] $end
$var integer 32 D input_data [31:0] $end
$var integer 32 E golden_data [31:0] $end
$var integer 32 F m [31:0] $end
$var integer 32 G i [31:0] $end
$var integer 32 H k [31:0] $end
$var reg 1 I error $end
$var reg 1 J error_coef $end
$var reg 1 K status_error $end
$var integer 32 L timeout [31:0] $end
$scope module fir_DUT $end
$var wire 1 ! awready $end
$var wire 1 " wready $end
$var wire 1 M awvalid $end
$var wire 12 N awaddr [11:0] $end
$var wire 1 O wvalid $end
$var wire 32 P wdata [31:0] $end
$var wire 1 ' arready $end
$var wire 1 Q rready $end
$var wire 1 R arvalid $end
$var wire 12 S araddr [11:0] $end
$var wire 1 + rvalid $end
$var wire 32 , rdata [31:0] $end
$var wire 1 T ss_tvalid $end
$var wire 32 U ss_tdata [31:0] $end
$var wire 1 V ss_tlast $end
$var wire 1 0 ss_tready $end
$var wire 1 W sm_tready $end
$var wire 1 2 sm_tvalid $end
$var wire 32 3 sm_tdata [31:0] $end
$var wire 1 4 sm_tlast $end
$var wire 4 7 tap_WE [3:0] $end
$var wire 1 8 tap_EN $end
$var wire 32 9 tap_Di [31:0] $end
$var reg 12 X tap_A [11:0] $end
$var wire 32 ; tap_Do [31:0] $end
$var wire 4 < data_WE [3:0] $end
$var wire 1 = data_EN $end
$var wire 32 > data_Di [31:0] $end
$var reg 12 Y data_A [11:0] $end
$var wire 32 @ data_Do [31:0] $end
$var wire 1 Z axis_clk $end
$var wire 1 [ axis_rst_n $end
$var reg 4 \ \genblk1.cs  [3:0] $end
$var reg 4 ] \genblk1.ns  [3:0] $end
$var reg 32 ^ \genblk1.tap_Di_reg  [31:0] $end
$var reg 12 _ \genblk1.tap_A_reg  [11:0] $end
$var reg 12 ` \genblk1.tap_A_reg_read  [11:0] $end
$var reg 4 a \genblk1.tap_WE_reg  [3:0] $end
$var reg 4 b \genblk1.coef_count  [3:0] $end
$var reg 1 c \genblk1.awready_reg  $end
$var reg 12 d \genblk1.addr_reg  [11:0] $end
$var reg 1 e \genblk1.rvalid_reg  $end
$var reg 1 f \genblk1.work  $end
$var reg 4 g \genblk1.stream_count_ss  [3:0] $end
$var reg 32 h \genblk1.data_Di_reg  [31:0] $end
$var reg 32 i \genblk1.ap_ceeck  [31:0] $end
$var reg 12 j \genblk1.data_A_reg  [11:0] $end
$var reg 4 k \genblk1.data_WE_reg  [3:0] $end
$var reg 4 l \genblk1.now_data_addr  [3:0] $end
$var reg 4 m \genblk1.ptr  [3:0] $end
$var reg 4 n \genblk1.initial_ptr  [3:0] $end
$var reg 4 o \genblk1.X_count  [3:0] $end
$var reg 4 p \genblk1.coef_ptr  [3:0] $end
$var reg 4 q \genblk1.out_count  [3:0] $end
$var reg 32 r \genblk1.Xn  [31:0] $end
$var reg 32 s \genblk1.Yn  [31:0] $end
$var reg 32 t \genblk1.multi_result  [31:0] $end
$var reg 1 u \genblk1.out_EN  $end
$var reg 1 v \genblk1.out_EN_t  $end
$var reg 1 w \genblk1.out_EN_2  $end
$var reg 1 x \genblk1.out_EN_t2  $end
$var reg 1 y \genblk1.out_EN_t3  $end
$var reg 1 z \genblk1.do_cal  $end
$var reg 32 { \genblk1.mult_a  [31:0] $end
$var reg 10 | \genblk1.pattern_number  [9:0] $end
$var reg 1 } \genblk1.ap_start  $end
$var reg 1 ~ \genblk1.ap_done  $end
$var reg 1 !! \genblk1.ap_idle  $end
$var reg 1 "! \genblk1.read_done  $end
$var wire 4 #! \genblk1.ptr_plus  [3:0] $end
$var wire 1 $! \genblk1.mult_EN  $end
$var wire 1 %! \genblk1.mult_EN_2  $end
$upscope $end
$scope module tap_RAM $end
$var wire 1 &! CLK $end
$var wire 4 7 WE [3:0] $end
$var wire 1 8 EN $end
$var wire 32 9 Di [31:0] $end
$var wire 32 ; Do [31:0] $end
$var wire 12 : A [11:0] $end
$var reg 12 '! r_A [11:0] $end
$var reg 32 (! Temp_D [31:0] $end
$upscope $end
$scope module data_RAM $end
$var wire 1 )! CLK $end
$var wire 4 < WE [3:0] $end
$var wire 1 = EN $end
$var wire 32 > Di [31:0] $end
$var wire 32 @ Do [31:0] $end
$var wire 12 ? A [11:0] $end
$var reg 12 *! r_A [11:0] $end
$var reg 32 +! Temp_D [31:0] $end
$upscope $end
$scope task config_write $end
$var reg 12 ,! addr [11:0] $end
$var reg 32 -! data [31:0] $end
$upscope $end
$scope task config_read_check $end
$var reg 12 .! addr [11:0] $end
$var reg 32 /! exp_data [31:0] $end
$var reg 32 0! mask [31:0] $end
$upscope $end
$scope task ss $end
$var reg 32 1! in1 [31:0] $end
$upscope $end
$scope task sm $end
$var reg 32 2! in2 [31:0] $end
$var reg 32 3! pcnt [31:0] $end
$upscope $end
$upscope $end
$enddefinitions $end
#0
$dumpvars
0!
1!!
0"
0"!
0#
b1 #!
bx $
1$!
0%
0%!
bx &
0&!
0'
bx '!
x(
bx (!
x)
0)!
bx *
bx *!
0+
bx +!
bx ,
b10000 ,!
1-
b1001011000 -!
b1 .
bx .!
0/
bx /!
00
bx 0!
11
b1 1!
02
bx 2!
b0 3
bx 3!
z4
05
06
b0 7
18
b0 9
b0 :
bx ;
b0 <
1=
b0 >
b0 ?
bx @
b1001011000 A
b11111111111111111011000111100000 B
b11111111111111111011000111100001 C
b1 D
b1 E
b1001011000 F
b0 G
bx H
0I
0J
0K
b11110100001001000000 L
0M
bx N
0O
bx P
xQ
xR
bx S
1T
b1 U
0V
1W
b0 X
b0 Y
0Z
0[
b0 \
b1 ]
b0 ^
b0 _
b0 `
b0 a
b0 b
xc
b0 d
0e
0f
b0 g
b0 h
b0 i
b0 j
b0 k
bx l
b0 m
b0 n
b0 o
b0 p
b0 q
b0 r
b0 s
b0 t
0u
0v
0w
0x
0y
0z
b0 {
b0 |
0}
0~
$end
#5000
1!!
0"!
1#
b10000 $
1%
b1001011000 &
1&!
b0 '!
1)!
b0 *!
15
bx ;
bx @
b11110100001000111111 L
1M
b10000 N
1O
b1001011000 P
1Z
b0 \
b1 ]
b0 ^
b0 _
b0 `
b0 a
b0 b
b0 d
0e
0f
b0 g
b0 h
b0 i
b0 j
b0 k
b0 m
b0 n
b0 o
b0 p
b0 q
b0 r
b0 s
b0 t
0u
0v
0w
0x
0y
0z
b0 |
0}
0~
#10000
0&!
0)!
05
0Z
#15000
1!
1!!
0"
0"!
0%!
1&!
1'
b0 '!
1)!
b0 *!
bx ,
10
02
15
16
b0 >
b11110100001000111110 L
b0 X
b0 Y
1Z
1[
b1 \
b10 ]
b0 ^
b0 _
bx `
b0 a
b1 b
b0 d
0e
0f
b0 g
b100 i
b0 j
b0 k
b0 m
b0 n
b0 o
b0 p
b0 q
b0 r
b0 s
b0 t
1u
0v
1w
0x
0y
0z
b0 {
b0 |
0}
0~
#20000
0&!
0)!
05
0Z
#25000
0!
1!!
1"
b10 #!
0%!
1&!
0'
b0 '!
1)!
b0 *!
1+
1-
b10 .
10
b10 1!
02
15
b1111 <
b1 >
b1 G
b11110100001000111101 L
b10 U
b0 X
b0 Y
1Z
b10 \
b1 ]
b0 ^
b0 _
bx `
b0 a
b1 b
b10000 d
1e
0f
b1 g
b1 h
b100 i
b0 j
b1111 k
b1 m
b0 n
b0 o
b0 p
b0 q
b0 r
b0 s
b0 t
1u
0v
0w
0x
0y
0z
b0 {
b1 |
0}
0~
#30000
0&!
0)!
05
0Z
#35000
1!
1!!
0"
0"!
0#
b11 #!
0$!
0%
0%!
1&!
1'
b0 '!
1)!
b0 *!
0+
b100000 ,!
1-
b0 -!
b11 .
10
b11 1!
02
15
b101000 :
b10 >
b100 ?
b1 @
b10 G
b0 H
b11110100001000111100 L
0M
0O
b11 U
b101000 X
b100 Y
1Z
b1 \
b1 ]
b0 ^
b101000 _
bx `
b0 a
b10 b
b10000 d
0e
0f
b10 g
b10 h
b100 i
b100 j
b1111 k
b10 m
b0 n
b0 o
b0 p
b0 q
b0 r
b0 s
b0 t
1u
0v
1w
0x
0y
0z
b0 {
b10 |
0}
0~
#40000
0&!
0)!
05
0Z
#45000
1!!
1#
b100 #!
b100000 $
1%
b0 &
1&!
b101000 '!
1)!
b100 *!
1+
1-
b100 .
10
b100 1!
15
bx ;
b11 >
b1000 ?
b10 @
b11 G
b11110100001000111011 L
1M
b100000 N
1O
b0 P
b100 U
b1000 Y
1Z
b1 \
b10 ]
b0 ^
b101000 _
bx `
b0 a
b10 b
b10000 d
1e
0f
b11 g
b11 h
b100 i
b1000 j
b1111 k
b11 m
b0 n
b0 o
b0 p
b0 q
b0 r
b0 s
b0 t
0u
0v
0w
0x
0y
0z
b0 {
b11 |
0}
0~
#50000
0&!
0)!
05
0Z
#55000
0!
1!!
1"
b101 #!
0%!
1&!
0'
b101000 '!
1)!
b1000 *!
1-
b101 .
10
b101 1!
02
15
b100 >
b1100 ?
b11 @
b100 G
b11110100001000111010 L
b101 U
b101000 X
b1100 Y
1Z
b10 \
b1 ]
b0 ^
b101000 _
bx `
b0 a
b10 b
b100000 d
1e
0f
b100 g
b100 h
b100 i
b1100 j
b1111 k
b100 m
b0 n
b0 o
b0 p
b0 q
b0 r
b0 s
b0 t
0u
0v
0w
0x
0y
0z
b0 {
b100 |
0}
0~
#60000
0&!
0)!
05
0Z
#65000
1!
1!!
0"
0"!
0#
b110 #!
1$!
0%
0%!
1&!
1'
b101000 '!
1)!
b1100 *!
0+
b100100 ,!
1-
b11111111111111111111111111110110 -!
b110 .
10
b110 1!
02
15
b1111 7
b0 :
b101 >
b10000 ?
b100 @
b101 G
b1 H
b11110100001000111001 L
0M
0O
b110 U
b0 X
b10000 Y
1Z
b1 \
b1 ]
b0 ^
b0 _
bx `
b1111 a
b11 b
b100000 d
0e
0f
b101 g
b101 h
b100 i
b10000 j
b1111 k
b101 m
b0 n
b0 o
b0 p
b0 q
b0 r
b0 s
b0 t
0u
0v
0w
0x
0y
0z
b0 {
b101 |
0}
0~
#70000
0&!
0)!
05
0Z
#75000
1!!
1#
b111 #!
b100100 $
1%
b11111111111111111111111111110110 &
1&!
b0 '!
1)!
b10000 *!
1+
b0x00 ,
1-
b111 .
10
b111 1!
15
b0 7
b0 ;
b110 >
b10100 ?
b101 @
b110 G
b11110100001000111000 L
1M
b100100 N
1O
b11111111111111111111111111110110 P
b111 U
b10100 Y
1Z
b1 \
b10 ]
b0 ^
b0 _
bx `
b0 a
b11 b
b100000 d
1e
0f
b110 g
b110 h
b100 i
b10100 j
b1111 k
b110 m
b0 n
b0 o
b0 p
b0 q
b0 r
b0 s
b0 t
1u
0v
1w
0x
0y
0z
b0 {
b110 |
0}
0~
#80000
0&!
0)!
05
0Z
#85000
0!
1!!
1"
b1000 #!
0%!
1&!
0'
b0 '!
1)!
b10100 *!
1-
b1000 .
10
b1000 1!
02
15
b111 >
b11000 ?
b110 @
b111 G
b11110100001000110111 L
b1000 U
b0 X
b11000 Y
1Z
b10 \
b1 ]
b0 ^
b0 _
bx `
b0 a
b11 b
b100100 d
1e
0f
b111 g
b111 h
b100 i
b11000 j
b1111 k
b111 m
b0 n
b0 o
b0 p
b0 q
b0 r
b0 s
b0 t
1u
0v
0w
0x
0y
0z
b0 {
b111 |
0}
0~
#90000
0&!
0)!
05
0Z
#95000
1!
1!!
0"
0"!
0#
b1001 #!
0$!
0%
0%!
1&!
1'
b0 '!
1)!
b11000 *!
0+
b101000 ,!
1-
b11111111111111111111111111110111 -!
b1001 .
10
b1001 1!
02
15
b1111 7
b11111111111111111111111111110110 9
b100 :
b1000 >
b11100 ?
b111 @
b1000 G
b10 H
b11110100001000110110 L
0M
0O
b1001 U
b100 X
b11100 Y
1Z
b1 \
b1 ]
b11111111111111111111111111110110 ^
b100 _
bx `
b1111 a
b100 b
b100100 d
0e
0f
b1000 g
b1000 h
b100 i
b11100 j
b1111 k
b1000 m
b0 n
b0 o
b0 p
b0 q
b0 r
b0 s
b0 t
1u
0v
1w
0x
0y
0z
b0 {
b1000 |
0}
0~
#100000
0&!
0)!
05
0Z
#105000
1!!
1#
b1010 #!
b101000 $
1%
b11111111111111111111111111110111 &
1&!
b100 '!
1)!
b11100 *!
1+
bx01x0 ,
1-
b1010 .
10
b1010 1!
15
b0 7
b11111111111111111111111111110110 ;
b1001 >
b100000 ?
b1000 @
b1001 G
b11110100001000110101 L
1M
b101000 N
1O
b11111111111111111111111111110111 P
b1010 U
b100000 Y
1Z
b1 \
b10 ]
b11111111111111111111111111110110 ^
b100 _
bx `
b0 a
b100 b
b100100 d
1e
0f
b1001 g
b1001 h
b100 i
b100000 j
b1111 k
b1001 m
b0 n
b0 o
b0 p
b0 q
b0 r
b0 s
b0 t
0u
0v
0w
0x
0y
0z
b0 {
b1001 |
0}
0~
#110000
0&!
0)!
05
0Z
#115000
0!
1!!
1"
b0 #!
0%!
1&!
0'
b100 '!
1)!
b100000 *!
1-
b1011 .
00
b1011 1!
02
15
b1010 >
b100100 ?
b1001 @
b1010 G
b11110100001000110100 L
b1011 U
b100 X
b100100 Y
1Z
b10 \
b1 ]
b11111111111111111111111111110110 ^
b100 _
bx `
b0 a
b100 b
b101000 d
1e
0f
b1010 g
b1010 h
b100 i
b100100 j
b1111 k
b1010 m
b0 n
b0 o
b0 p
b0 q
b0 r
b0 s
b0 t
0u
0v
0w
0x
0y
0z
b0 {
b1010 |
0}
0~
#120000
0&!
0)!
05
0Z
#125000
1!
1!!
0"
0"!
0#
0$!
0%
0%!
1&!
1'
b100 '!
1)!
b100100 *!
0+
b101100 ,!
b10111 -!
00
02
15
b1111 7
b11111111111111111111111111110111 9
b1000 :
b1011 >
b101000 ?
b1010 @
b11 H
b11110100001000110011 L
0M
0O
b1000 X
b101000 Y
1Z
b1 \
b1 ]
b11111111111111111111111111110111 ^
b1000 _
bx `
b1111 a
b101 b
b101000 d
0e
0f
b1011 g
b1011 h
b100 i
b101000 j
b1111 k
b1010 m
b0 n
b0 o
b0 p
b0 q
b0 r
b0 s
b0 t
0u
0v
0w
0x
0y
0z
b0 {
b1010 |
0}
0~
#130000
0&!
0)!
05
0Z
#135000
1!!
1#
b101100 $
1%
b10111 &
1&!
b1000 '!
1)!
b101000 *!
1+
bx01xx ,
15
b0 7
b11111111111111111111111111110111 ;
b0 <
b1011 @
b11110100001000110010 L
1M
b101100 N
1O
b10111 P
1Z
b1 \
b10 ]
b11111111111111111111111111110111 ^
b1000 _
bx `
b0 a
b101 b
b101000 d
1e
0f
b1011 g
b100 i
b101000 j
b0 k
b1010 m
b0 n
b0 o
b0 p
b0 q
b0 r
b0 s
b0 t
0u
0v
0w
0x
0y
0z
b0 {
b1010 |
0}
0~
#140000
0&!
0)!
05
0Z
#145000
0!
1!!
1"
0%!
1&!
0'
b1000 '!
1)!
b101000 *!
00
02
15
b1011 >
b11110100001000110001 L
b1000 X
b101000 Y
1Z
b10 \
b1 ]
b11111111111111111111111111110111 ^
b1000 _
bx `
b0 a
b101 b
b101100 d
1e
0f
b1011 g
b100 i
b101000 j
b0 k
b1010 m
b0 n
b0 o
b0 p
b0 q
b0 r
b0 s
b0 t
0u
0v
0w
0x
0y
0z
b0 {
b1010 |
0}
0~
#150000
0&!
0)!
05
0Z
#155000
1!
1!!
0"
0"!
0#
0$!
0%
0%!
1&!
1'
b1000 '!
1)!
b101000 *!
0+
b110000 ,!
b111000 -!
00
02
15
b1111 7
b10111 9
b1100 :
b1011 >
b100 H
b11110100001000110000 L
0M
0O
b1100 X
b101000 Y
1Z
b1 \
b1 ]
b10111 ^
b1100 _
bx `
b1111 a
b110 b
b101100 d
0e
0f
b1011 g
b100 i
b101000 j
b0 k
b1010 m
b0 n
b0 o
b0 p
b0 q
b0 r
b0 s
b0 t
0u
0v
0w
0x
0y
0z
b0 {
b1010 |
0}
0~
#160000
0&!
0)!
05
0Z
#165000
1!!
1#
b110000 $
1%
b111000 &
1&!
b1100 '!
1)!
b101000 *!
1+
b0x01xx ,
15
b0 7
b10111 ;
b11110100001000101111 L
1M
b110000 N
1O
b111000 P
1Z
b1 \
b10 ]
b10111 ^
b1100 _
bx `
b0 a
b110 b
b101100 d
1e
0f
b1011 g
b100 i
b101000 j
b0 k
b1010 m
b0 n
b0 o
b0 p
b0 q
b0 r
b0 s
b0 t
0u
0v
0w
0x
0y
0z
b1010 |
0}
0~
#170000
0&!
0)!
05
0Z
#175000
0!
1!!
1"
0%!
1&!
0'
b1100 '!
1)!
b101000 *!
00
02
15
b1011 >
b11110100001000101110 L
b1100 X
b101000 Y
1Z
b10 \
b1 ]
b10111 ^
b1100 _
bx `
b0 a
b110 b
b110000 d
1e
0f
b1011 g
b100 i
b101000 j
b0 k
b1010 m
b0 n
b0 o
b0 p
b0 q
b0 r
b0 s
b0 t
0u
0v
0w
0x
0y
0z
b0 {
b1010 |
0}
0~
#180000
0&!
0)!
05
0Z
#185000
1!
1!!
0"
0"!
0#
0$!
0%
0%!
1&!
1'
b1100 '!
1)!
b101000 *!
0+
b110100 ,!
b111111 -!
00
02
15
b1111 7
b111000 9
b10000 :
b1011 >
b101 H
b11110100001000101101 L
0M
0O
b10000 X
b101000 Y
1Z
b1 \
b1 ]
b111000 ^
b10000 _
bx `
b1111 a
b111 b
b110000 d
0e
0f
b1011 g
b100 i
b101000 j
b0 k
b1010 m
b0 n
b0 o
b0 p
b0 q
b0 r
b0 s
b0 t
0u
0v
0w
0x
0y
0z
b0 {
b1010 |
0}
0~
#190000
0&!
0)!
05
0Z
#195000
1!!
1#
b110100 $
1%
b111111 &
1&!
b10000 '!
1)!
b101000 *!
1+
b0xxxx00 ,
15
b0 7
b111000 ;
b11110100001000101100 L
1M
b110100 N
1O
b111111 P
1Z
b1 \
b10 ]
b111000 ^
b10000 _
bx `
b0 a
b111 b
b110000 d
1e
0f
b1011 g
b100 i
b101000 j
b0 k
b1010 m
b0 n
b0 o
b0 p
b0 q
b0 r
b0 s
b0 t
0u
0v
0w
0x
0y
0z
b1010 |
0}
0~
#200000
0&!
0)!
05
0Z
#205000
0!
1!!
1"
0%!
1&!
0'
b10000 '!
1)!
b101000 *!
00
02
15
b1011 >
b11110100001000101011 L
b10000 X
b101000 Y
1Z
b10 \
b1 ]
b111000 ^
b10000 _
bx `
b0 a
b111 b
b110100 d
1e
0f
b1011 g
b100 i
b101000 j
b0 k
b1010 m
b0 n
b0 o
b0 p
b0 q
b0 r
b0 s
b0 t
0u
0v
0w
0x
0y
0z
b0 {
b1010 |
0}
0~
#210000
0&!
0)!
05
0Z
#215000
1!
1!!
0"
0"!
0#
0$!
0%
0%!
1&!
1'
b10000 '!
1)!
b101000 *!
0+
b111000 ,!
b111000 -!
00
02
15
b1111 7
b111111 9
b10100 :
b1011 >
b110 H
b11110100001000101010 L
0M
0O
b10100 X
b101000 Y
1Z
b1 \
b1 ]
b111111 ^
b10100 _
bx `
b1111 a
b1000 b
b110100 d
0e
0f
b1011 g
b100 i
b101000 j
b0 k
b1010 m
b0 n
b0 o
b0 p
b0 q
b0 r
b0 s
b0 t
0u
0v
0w
0x
0y
0z
b0 {
b1010 |
0}
0~
#220000
0&!
0)!
05
0Z
#225000
1!!
1#
b111000 $
1%
b111000 &
1&!
b10100 '!
1)!
b101000 *!
1+
b0xxx1xx ,
15
b0 7
b111111 ;
b11110100001000101001 L
1M
b111000 N
1O
b111000 P
1Z
b1 \
b10 ]
b111111 ^
b10100 _
bx `
b0 a
b1000 b
b110100 d
1e
0f
b1011 g
b100 i
b101000 j
b0 k
b1010 m
b0 n
b0 o
b0 p
b0 q
b0 r
b0 s
b0 t
0u
0v
0w
0x
0y
0z
b1010 |
0}
0~
#230000
0&!
0)!
05
0Z
#235000
0!
1!!
1"
0%!
1&!
0'
b10100 '!
1)!
b101000 *!
00
02
15
b1011 >
b11110100001000101000 L
b10100 X
b101000 Y
1Z
b10 \
b1 ]
b111111 ^
b10100 _
bx `
b0 a
b1000 b
b111000 d
1e
0f
b1011 g
b100 i
b101000 j
b0 k
b1010 m
b0 n
b0 o
b0 p
b0 q
b0 r
b0 s
b0 t
0u
0v
0w
0x
0y
0z
b0 {
b1010 |
0}
0~
#240000
0&!
0)!
05
0Z
#245000
1!
1!!
0"
0"!
0#
0$!
0%
0%!
1&!
1'
b10100 '!
1)!
b101000 *!
0+
b111100 ,!
b10111 -!
00
02
15
b1111 7
b111000 9
b11000 :
b1011 >
b111 H
b11110100001000100111 L
0M
0O
b11000 X
b101000 Y
1Z
b1 \
b1 ]
b111000 ^
b11000 _
bx `
b1111 a
b1001 b
b111000 d
0e
0f
b1011 g
b100 i
b101000 j
b0 k
b1010 m
b0 n
b0 o
b0 p
b0 q
b0 r
b0 s
b0 t
0u
0v
0w
0x
0y
0z
b0 {
b1010 |
0}
0~
#250000
0&!
0)!
05
0Z
#255000
1!!
1#
b111100 $
1%
b10111 &
1&!
b11000 '!
1)!
b101000 *!
1+
b0xxxx00 ,
15
b0 7
b111000 ;
b11110100001000100110 L
1M
b111100 N
1O
b10111 P
1Z
b1 \
b10 ]
b111000 ^
b11000 _
bx `
b0 a
b1001 b
b111000 d
1e
0f
b1011 g
b100 i
b101000 j
b0 k
b1010 m
b0 n
b0 o
b0 p
b0 q
b0 r
b0 s
b0 t
0u
0v
0w
0x
0y
0z
b1010 |
0}
0~
#260000
0&!
0)!
05
0Z
#265000
0!
1!!
1"
0%!
1&!
0'
b11000 '!
1)!
b101000 *!
00
02
15
b1011 >
b11110100001000100101 L
b11000 X
b101000 Y
1Z
b10 \
b1 ]
b111000 ^
b11000 _
bx `
b0 a
b1001 b
b111100 d
1e
0f
b1011 g
b100 i
b101000 j
b0 k
b1010 m
b0 n
b0 o
b0 p
b0 q
b0 r
b0 s
b0 t
0u
0v
0w
0x
0y
0z
b0 {
b1010 |
0}
0~
#270000
0&!
0)!
05
0Z
#275000
1!
1!!
0"
0"!
0#
0$!
0%
0%!
1&!
1'
b11000 '!
1)!
b101000 *!
0+
b1000000 ,!
b11111111111111111111111111110111 -!
00
02
15
b1111 7
b10111 9
b11100 :
b1011 >
b1000 H
b11110100001000100100 L
0M
0O
b11100 X
b101000 Y
1Z
b1 \
b1 ]
b10111 ^
b11100 _
bx `
b1111 a
b1010 b
b111100 d
0e
0f
b1011 g
b100 i
b101000 j
b0 k
b1010 m
b0 n
b0 o
b0 p
b0 q
b0 r
b0 s
b0 t
0u
0v
0w
0x
0y
0z
b0 {
b1010 |
0}
0~
#280000
0&!
0)!
05
0Z
#285000
1!!
1#
b1000000 $
1%
b11111111111111111111111111110111 &
1&!
b11100 '!
1)!
b101000 *!
1+
b0x01xx ,
15
b0 7
b10111 ;
b11110100001000100011 L
1M
b1000000 N
1O
b11111111111111111111111111110111 P
1Z
b1 \
b10 ]
b10111 ^
b11100 _
bx `
b0 a
b1010 b
b111100 d
1e
0f
b1011 g
b100 i
b101000 j
b0 k
b1010 m
b0 n
b0 o
b0 p
b0 q
b0 r
b0 s
b0 t
0u
0v
0w
0x
0y
0z
b1010 |
0}
0~
#290000
0&!
0)!
05
0Z
#295000
0!
1!!
1"
0%!
1&!
0'
b11100 '!
1)!
b101000 *!
00
02
15
b1011 >
b11110100001000100010 L
b11100 X
b101000 Y
1Z
b10 \
b1 ]
b10111 ^
b11100 _
bx `
b0 a
b1010 b
b1000000 d
1e
0f
b1011 g
b100 i
b101000 j
b0 k
b1010 m
b0 n
b0 o
b0 p
b0 q
b0 r
b0 s
b0 t
0u
0v
0w
0x
0y
0z
b0 {
b1010 |
0}
0~
#300000
0&!
0)!
05
0Z
#305000
1!
1!!
0"
0"!
0#
0$!
0%
0%!
1&!
1'
b11100 '!
1)!
b101000 *!
0+
b1000100 ,!
b11111111111111111111111111110110 -!
00
02
15
b1111 7
b11111111111111111111111111110111 9
b100000 :
b1011 >
b1001 H
b11110100001000100001 L
0M
0O
b100000 X
b101000 Y
1Z
b1 \
b1 ]
b11111111111111111111111111110111 ^
b100000 _
bx `
b1111 a
b1011 b
b1000000 d
0e
0f
b1011 g
b100 i
b101000 j
b0 k
b1010 m
b0 n
b0 o
b0 p
b0 q
b0 r
b0 s
b0 t
0u
0v
0w
0x
0y
0z
b0 {
b1010 |
0}
0~
#310000
0&!
0)!
05
0Z
#315000
1!!
1#
b1000100 $
1%
b11111111111111111111111111110110 &
1&!
b100000 '!
1)!
b101000 *!
1+
bx01xx ,
15
b0 7
b11111111111111111111111111110111 ;
b11110100001000100000 L
1M
b1000100 N
1O
b11111111111111111111111111110110 P
1Z
b1 \
b10 ]
b11111111111111111111111111110111 ^
b100000 _
bx `
b0 a
b1011 b
b1000000 d
1e
0f
b1011 g
b100 i
b101000 j
b0 k
b1010 m
b0 n
b0 o
b0 p
b0 q
b0 r
b0 s
b0 t
0u
0v
0w
0x
0y
0z
b1010 |
0}
0~
#320000
0&!
0)!
05
0Z
#325000
0!
1!!
1"
0%!
1&!
0'
b100000 '!
1)!
b101000 *!
00
02
15
b1011 >
b11110100001000011111 L
b100000 X
b101000 Y
1Z
b10 \
b1 ]
b11111111111111111111111111110111 ^
b100000 _
bx `
b0 a
b1011 b
b1000100 d
1e
0f
b1011 g
b100 i
b101000 j
b0 k
b1010 m
b0 n
b0 o
b0 p
b0 q
b0 r
b0 s
b0 t
0u
0v
0w
0x
0y
0z
b0 {
b1010 |
0}
0~
#330000
0&!
0)!
05
0Z
#335000
1!
1!!
0"
0"!
0#
0$!
0%
0%!
1&!
1'
b100000 '!
1)!
b101000 *!
0+
b1001000 ,!
b0 -!
00
02
15
b1111 7
b11111111111111111111111111110110 9
b100100 :
b1011 >
b1010 H
b11110100001000011110 L
0M
0O
b100100 X
b101000 Y
1Z
b1 \
b1 ]
b11111111111111111111111111110110 ^
b100100 _
bx `
b1111 a
b1100 b
b1000100 d
0e
0f
b1011 g
b100 i
b101000 j
b0 k
b1010 m
b0 n
b0 o
b0 p
b0 q
b0 r
b0 s
b0 t
0u
0v
0w
0x
0y
0z
b0 {
b1010 |
0}
0~
#340000
0&!
0)!
05
0Z
#345000
1!!
1#
b1001000 $
1%
b0 &
1&!
b100100 '!
1)!
b101000 *!
1+
bx01x0 ,
15
b0 7
b11111111111111111111111111110110 ;
b11110100001000011101 L
1M
b1001000 N
1O
b0 P
1Z
b1 \
b10 ]
b11111111111111111111111111110110 ^
b100100 _
bx `
b0 a
b1100 b
b1000100 d
1e
0f
b1011 g
b100 i
b101000 j
b0 k
b1010 m
b0 n
b0 o
b0 p
b0 q
b0 r
b0 s
b0 t
0u
0v
0w
0x
0y
0z
b1010 |
0}
0~
#350000
0&!
0)!
05
0Z
#355000
0!
1!!
1"
0%!
1&!
0'
b100100 '!
1)!
b101000 *!
00
02
15
b1011 >
b11110100001000011100 L
b100100 X
b101000 Y
1Z
b10 \
b1 ]
b11111111111111111111111111110110 ^
b100100 _
bx `
b0 a
b1100 b
b1001000 d
1e
0f
b1011 g
b100 i
b101000 j
b0 k
b1010 m
b0 n
b0 o
b0 p
b0 q
b0 r
b0 s
b0 t
0u
0v
0w
0x
0y
0z
b0 {
b1010 |
0}
0~
#360000
0&!
0)!
05
0Z
#365000
1!
1!!
0"
0"!
0#
0$!
0%
0%!
1&!
1'
b100100 '!
0)
1)!
b101000 *!
0+
b100000 .!
b0 /!
00
b11111111111111111111111111111111 0!
02
15
b1111 7
b0 9
b101000 :
b1011 >
b0 H
b11110100001000011011 L
0M
0O
0R
b101000 X
b101000 Y
1Z
b1 \
b1 ]
b0 ^
b101000 _
bx `
b1111 a
b1101 b
b1001000 d
0e
0f
b1011 g
b100 i
b101000 j
b0 k
b1010 m
b0 n
b0 o
b0 p
b0 q
b0 r
b0 s
b0 t
0u
0v
0w
0x
0y
0z
b0 {
b1010 |
0}
0~
#370000
0&!
0)!
05
0Z
#375000
1!!
1&!
b101000 '!
1(
1)
1)!
b100000 *
b101000 *!
1+
b0 ,
15
b0 7
b0 ;
b11110100001000011010 L
1Q
1R
b100000 S
b101000 X
1Z
b1 \
b1 ]
b0 ^
b101000 _
bx `
b0 a
b1101 b
b1001000 d
1e
0f
b1011 g
b100 i
b101000 j
b0 k
b1010 m
b0 n
b0 o
b0 p
b0 q
b0 r
b0 s
b0 t
0u
0v
0w
0x
0y
0z
b1010 |
0}
0~
#380000
0&!
0)!
05
0Z
